Investigation on Avonet Bird Dataset
…
data_mod1 <- linear_reg() %>% 
  set_engine("lm")

data_wflow1 <- workflow() %>% 
  add_model(data_mod1) %>% 
  add_recipe(data_rec1)
```

---

# Fit Data

```
## # A tibble: 1,999 × 4
##   .pred Beak_Width Beak_Depth Latitude
##   <dbl>      <dbl>      <dbl>    <dbl>
## 1  2.83        8.7       11.1    45.2 
## 2  2.76        8.3       10.9     0.71
## 3  2.78        8.6       11.2    -1.32
## 4  1.42        8.3       16.3    21.6 
## 5  2.61       10         13.6     0.88
## # ℹ 1,994 more rows
```
…
---

# Making Prediction

```
## # A tibble: 2 × 5
##   term              estimate std.error statistic   p.value
##   <chr>                <dbl>     <dbl>     <dbl>     <dbl>
## 1 (Intercept)         1.20     0.0508       23.6 3.73e-123
## 2 `Hand-Wing.Index`  -0.0520   0.00191     -27.2 1.68e-162
```

```
## # A tibble: 1,999 × 5
##   .pred_0 .pred_1 Trophic.Niche `Hand-Wing.Index` Invertivore
##     <dbl>   <dbl> <chr>                     <dbl> <chr>      
## 1   0.637   0.363 Vertivore                  33.9 0          
## 2   0.577   0.423 Vertivore                  29   0          
## 3   0.603   0.397 Vertivore                  31.1 0          
## 4   0.551   0.449 Vertivore                  27   0          
## 5   0.589   0.411 Vertivore                  30   0          
## # ℹ 1,994 more rows
```
…
---

# Making Prediction

```
## # A tibble: 3 × 5
##   term              estimate std.error statistic   p.value
##   <chr>                <dbl>     <dbl>     <dbl>     <dbl>
## 1 (Intercept)        1.42     0.0541        26.3 8.78e-153
## 2 `Hand-Wing.Index` -0.0404   0.00197      -20.6 6.82e- 94
## 3 Mass              -0.00484  0.000259     -18.7 3.62e- 78
```

```
## # A tibble: 2,499 × 6
##   .pred_0 .pred_1 Trophic.Niche `Hand-Wing.Index`  Mass Invertivore
##     <dbl>   <dbl> <chr>                     <dbl> <dbl> <chr>      
## 1   0.760 0.240   Vertivore                  33.9  249. 0          
## 2   0.629 0.371   Vertivore                  32.7  131. 0          
## 3   0.587 0.413   Vertivore                  29    125  0          
## 4   0.828 0.172   Vertivore                  31.1  359. 0          
## 5   0.991 0.00855 Vertivore                  27   1050  0          
## # ℹ 2,494 more rows
```
…
